var renderJson = {
  // "page": {
  //   "pageNumber": 0,
  //   "pageSize": 10,
  //   "totalCount": 30,
  //   "totalPage": 3
  // },
  // "page": {
  //   "pageNumber": 18,
  //   "navigationNumber": [16,17,18,19,20],
  //   "numberGroupCount": 4,
  //   "enableNext": true, 
  //   "enablePrevious": true
  // },
  "page": {
    "pageNumber":1,
    "pageSize":5,
    "totalCount":55,
    "totalPage":11,
    "navigationNumber":[1,2,3,4,5],
    "enablePrevious":false,
    "enableNext":true,
    "numberGroupCount":1
  },
  "addressType": "PLAIN",
  "contents": [
    {
      "id": 14,
      "postCode": "150700",
      "address": "서울특별시 영등포구 영등포0가 우리벤처타운 "
    },
    {
      "id": 15,
      "postCode": "150701",
      "address": "서울특별시 영등포구 영등포1가 우리벤처타운 "
    },
    {
      "id": 16,
      "postCode": "150702",
      "address": "서울특별시 영등포구 영등포2가 우리벤처타운 "
    },
    {
      "id": 17,
      "postCode": "150703",
      "address": "서울특별시 영등포구 영등포3가 우리벤처타운 "
    },
    {
      "id": 18,
      "postCode": "150704",
      "address": "서울특별시 영등포구 영등포4가 우리벤처타운 "
    }
  ]
};